Name,age,phone_number,company,building_code,address
Bo,70,(275) 710-8978,Botsford-Botsford,7696,Kacihaven
Louie,42,1-265-174-4389,Bashirian Group,1805,Lake Jacey
Bernice,19,(692) 283-0389,Walter-Walter,5186,Laurianetown
Gordon,75,492.395.2225,Gibson-Gibson,8725,New Toytown
Leonor,24,(519) 001-8202,Reilly Group,89724,West Arnoldo
Dillon,57,(190) 544-3512,Mraz-Mraz,0129,Jaskolskiland
Ernesto,19,(123) 323-6010,Farrell LLC,61937,Port Sallie
Alexys,39,1-364-777-8345,Lind Inc,417,Marjoryfurt
Marianna,38,508.845.5058,Pfannerstill-Pfannerstill,101,West Ayden
Lesley,45,1-109-066-4077,Glover-Glover,0128,South Roxanne
Astrid,56,602.677.0428,Koss-Koss,00917,Port Jeffereymouth
Xzavier,41,973.722.9652,Price LLC,87569,New Delbertton
Elna,48,(400) 105-8261,Orn and Sons,872,South Antonetteside
Vicente,25,(420) 539-6657,Ortiz-Ortiz,0646,Ornside
Garnett,48,842-644-8714,Wilderman Group,3306,Creminbury
Frank,22,058-101-2983,Lind Inc,0972,South Myrtie
Reginald,26,477.632.7583,Boehm LLC,600,North Erikamouth
Dario,46,405.232.8623,Goodwin-Goodwin,94334,Kovacekmouth
Emmett,50,600-064-5347,Torphy-Torphy,707,Laurineton
Laurianne,26,522-948-9349,Bartell LLC,02358,New Ezrafort
Mathilde,68,384.388.9454,Ziemann Inc,01949,Kertzmannview
Deonte,28,1-248-132-5045,Wiza Wiza and Wiza,722,West Nickolas
Ayana,73,298.419.1653,Kuphal-Kuphal,3270,West Payton
Janet,62,(470) 920-5343,Moen-Moen,239,Dustinmouth
Elisabeth,40,821-534-1000,Gleason-Gleason,41815,Arnulfomouth
Kenyatta,55,309.874.9821,Funk Group,881,New Else
Myron,79,1-211-846-6703,Langworth-Langworth,14833,Port Bessieton
Donnie,37,512-148-7692,Bednar Bednar and Bednar,296,East Talon
Brady,76,1-019-376-3107,Koepp Koepp and Koepp,143,Lake Colt
Quinton,51,635-978-2643,Hodkiewicz Group,19334,Fishermouth
Dashawn,25,(533) 112-0814,Runolfsson-Runolfsson,32997,West Rosendo
Willard,52,099.244.7785,Marks Marks and Marks,410,Elsebury
Elaina,31,684-139-0978,Huels-Huels,8708,New Monserratfurt
Savanah,55,1-823-251-1530,Schneider-Schneider,7816,Annabellbury
Jasper,76,(480) 481-0852,Lueilwitz Lueilwitz and Lueilwitz,454,New Nicholausmouth
Delta,59,1-279-536-2617,Pagac LLC,962,South Paigeport
Danny,76,(033) 058-2677,Considine Considine and Considine,877,West Angelo
Jaren,20,(145) 688-6929,Miller-Miller,833,New Vaughnberg
Keagan,42,1-357-377-5894,Davis Davis and Davis,571,North Aracely
Cedrick,62,1-159-484-3310,Bartoletti-Bartoletti,080,East Karlee
Courtney,48,493-063-7997,Jenkins-Jenkins,5455,Hansenstad
Nola,73,1-166-585-3336,Macejkovic Inc,021,Lennieborough
Kieran,29,1-753-918-7639,McGlynn-McGlynn,1282,West Vicenta
Mia,57,699-018-5329,Kertzmann Inc,084,Jenningsfort
Rafaela,39,1-962-209-2525,Pouros Inc,92191,Chloeland
Rylan,63,714.012.9054,Dickinson Group,8398,West Omaborough
Johnathan,70,1-388-950-1714,Lubowitz Lubowitz and Lubowitz,9156,Labadieview
Rodolfo,23,(304) 385-7364,Haag Haag and Haag,1044,Lake Lionelfort
Vergie,23,928-546-9262,Reilly and Sons,85698,New Delphineshire
Rodolfo,47,(312) 401-4989,Kunze Kunze and Kunze,6698,Mathewberg
