name,employee_id,building_code,floor_number,salary,department
Brandt,54,108,GROUND,616018,Accounting
Noelia,51,101,GROUND,567920,E-Learning
Heather,5,102,GROUND,753206,Human Resources
Joana,36,103,GROUND,387723,Security and Investigations
Colin,19,101,GROUND,714726,Airlines / Aviation
Linwood,97,104,GROUND,357320,Plastics
Sim,80,107,GROUND,622360,Consumer Services
Camila,96,106,GROUND,336072,Airlines / Aviation
Lia,8,105,GROUND,328397,Package / Freight Delivery
Elian,23,107,GROUND,589369,Business Supplies and Equipment
Nova,84,102,GROUND,613245,Semiconductors
Verner,82,108,GROUND,429055,Architecture & Planning
Christine,73,106,GROUND,373801,Research
Eve,71,107,GROUND,574227,Fund-Raising
Kiera,73,105,GROUND,771593,Gambling & Casinos
Buddy,22,103,GROUND,657394,Printing
Elena,99,105,GROUND,405756,Import and Export
Irving,17,105,GROUND,728565,Mechanical or Industrial Engineering
Jenifer,68,101,GROUND,759867,Graphic Design
Justen,89,105,GROUND,356298,Real Estate
Noel,5,102,GROUND,673496,Restaurants
Hugh,35,105,GROUND,746602,Primary / Secondary Education
Peggie,49,106,GROUND,350207,Venture Capital & Private Equity
Enrique,52,109,GROUND,341995,Arts and Crafts
Rosalia,49,103,GROUND,585745,Semiconductors
Demetrius,30,109,GROUND,516734,Broadcast Media
Tressa,7,104,GROUND,767362,Utilities
Heloise,3,106,GROUND,513757,Investment Banking
Norbert,89,107,GROUND,492762,Airlines / Aviation
Antonietta,48,105,GROUND,563126,Insurance
Felicia,8,101,GROUND,735563,Sports
Ludie,74,109,GROUND,421411,Religious Institutions
Irma,63,102,GROUND,639757,Security and Investigations
Hazel,82,101,GROUND,581449,Oil & Energy
Agnes,45,106,GROUND,734681,Security and Investigations
Laurel,86,102,GROUND,686085,Industrial Automation
Caitlyn,88,106,GROUND,430461,Broadcast Media
Sibyl,30,107,GROUND,596423,Apparel & Fashion
Keely,44,105,GROUND,788590,Events Services
Allen,89,104,GROUND,422689,Building Materials
Mattie,1,109,GROUND,711753,Furniture
Tomasa,29,104,GROUND,485432,Luxury Goods & Jewelry
Giovani,84,108,GROUND,628130,Commercial Real Estate
Columbus,89,105,GROUND,485143,Industrial Automation
Jermain,48,102,GROUND,538449,Government Administration
Manuel,63,108,GROUND,539571,Package / Freight Delivery
Rashawn,2,106,GROUND,345420,Writing and Editing
Monroe,10,104,GROUND,650169,Warehousing
Oral,32,104,GROUND,477640,Motion Pictures and Film
Lucas,55,101,GROUND,796736,Tobacco
Carmine,54,106,GROUND,771616,Military
Retta,30,101,GROUND,442343,Newspapers
Delia,54,104,GROUND,610833,Medical Devices
Meggie,31,103,GROUND,682702,Restaurants
Erika,98,103,GROUND,652991,Cosmetics
Russell,2,105,GROUND,615100,Utilities
Eloisa,70,106,GROUND,496675,Packaging and Containers
Werner,78,108,GROUND,588252,Pharmaceuticals
Leilani,99,109,GROUND,785504,Online Media
Solon,15,109,GROUND,545113,Executive Office
Eda,40,109,GROUND,614196,International Affairs
Missouri,74,107,GROUND,582352,Entertainment
Wilfredo,18,108,GROUND,636763,Package / Freight Delivery
Jeanie,5,105,GROUND,339509,Consumer Electronics
Okey,20,101,GROUND,588378,Investment Management
Fred,22,108,GROUND,758703,Biotechnology
Lance,89,109,GROUND,441879,Oil & Energy
Colten,32,109,GROUND,548547,Maritime
Shana,88,105,GROUND,333164,Architecture & Planning
Laney,40,108,GROUND,611262,Facilities Services
Randall,80,103,GROUND,319497,Glass Ceramics & Concrete
Jaqueline,43,107,GROUND,389048,Glass Ceramics & Concrete
Grant,73,106,GROUND,520464,Arts and Crafts
Chandler,38,105,GROUND,776201,Alternative Medicine
Ethan,70,106,GROUND,729984,Nanotechnology
Ron,35,102,GROUND,502544,Apparel & Fashion
Burley,4,106,GROUND,544113,Pharmaceuticals
Eda,98,103,GROUND,647038,Computer Games
Olaf,97,104,GROUND,756638,Computer Software
Jordi,4,107,GROUND,474063,Marketing and Advertising
Dell,90,102,GROUND,573839,Broadcast Media
Raheem,40,109,GROUND,752309,Professional Training & Coaching
Hilario,86,102,GROUND,762158,Law Practice
Jordy,48,104,GROUND,438470,Printing
Shemar,66,102,GROUND,367178,Environmental Services
Rosamond,51,107,GROUND,639453,Internet
Issac,38,109,GROUND,571112,Consumer Services
Kiera,10,103,GROUND,649677,Marketing and Advertising
Kiley,16,105,GROUND,605969,Supermarkets
Lorna,23,109,GROUND,725771,Commercial Real Estate
Aaron,42,104,GROUND,399995,Warehousing
Isadore,60,109,GROUND,669327,Computer Networking
Malachi,8,102,GROUND,767262,Wireless
Yolanda,76,107,GROUND,661162,E-Learning
Erna,88,108,GROUND,511767,Chemicals
Daija,65,106,GROUND,580895,Political Organization
Mortimer,31,102,GROUND,448932,Wholesale
Noe,49,105,GROUND,768759,Telecommunications
Kobe,54,105,GROUND,473641,Political Organization
Magali,56,109,GROUND,443906,Investment Management
